Lab05: T and Z Distributions
…
Step 3: \(s^2\) and \(\bar{Y}\) are independent.

Question 3

Use the simulation_results dataset that we created above and create a plot that supports the claim that \(s^2\) and \(\bar{Y}\) are independent.

simulation_results

# A tibble: 500 × 2
    xbar     s
   <dbl> <dbl>
 1 11.5   3.12
 2  8.98  3.53
 3 11.2   3.74
 4  9.53  2.27
 5  7.83  3.39
 6  6.76  2.85
 7  9.29  5.32
 8 10.5   4.78
 9  8.99  2.19
10 11.8   1.79
# ℹ 490 more rows
…
